UTCTIME	ETTIME	LTLOCATION	GW	HEMISPHERE
2008-109T12:03	261792250.87	nan	6.34	North
2008-109T13:07	261796143.72	14.33	14.25	North
2008-129T09:29	263511051.67	2.33	10.86	North
2008-129T10:46	263515642.76	16.33	27.53	North
2008-129T11:50	263519467.63	15.00	6.62	North
2008-129T13:01	263523764.34	17.67	10.78	North
2008-195T10:18	269216361.71	17.00	7.31	North
2008-201T04:31	269713943.33	5.00	9.74	North
2008-201T05:05	269716016.92	9.67	11.53	North
2008-201T05:39	269718061.91	nan	9.67	North
2008-201T07:41	269725369.53	8.33	5.20	North
2008-201T12:31	269742737.65	3.00	3.90	North
2014-079T02:03	448553101.25	nan	5.39	North
2014-079T02:52	448556027.07	13.00	9.27	North
2014-079T03:51	448559561.67	13.00	17.73	North
2014-087T10:58	449276396.86	nan	5.54	North
2014-087T11:33	449278502.88	13.00	15.93	North
2014-087T12:30	449281881.30	16.33	30.98	North
2014-087T13:25	449285182.08	15.67	46.71	North
2014-087T14:16	449288229.74	14.33	35.12	North
2014-087T15:12	449291641.90	15.67	24.02	North
2014-087T16:11	449295172.19	15.00	49.17	North
2014-087T16:53	449297659.60	15.00	18.56	North
2014-087T17:59	449301645.51	19.00	9.23	North
2014-130T05:24	452971520.20	19.00	5.99	North
2014-130T08:12	452981629.21	17.00	10.02	North
2014-130T10:06	452988450.13	16.33	3.91	North
2014-130T10:48	452990950.78	15.67	4.74	North
2014-130T12:17	452996324.52	17.00	5.33	North
2014-130T13:59	453002421.85	16.33	6.17	North
2014-145T05:46	454268830.42	nan	5.12	North
2014-145T06:34	454271748.67	22.33	10.05	North
2014-145T07:37	454275509.69	nan	5.61	North
2014-145T08:22	454278245.55	19.67	8.37	North
2014-145T09:22	454281836.75	nan	8.69	North
2014-145T11:06	454288056.90	nan	7.84	North
2014-145T12:16	454292251.88	17.67	16.45	North
2014-145T13:06	454295239.31	16.33	13.06	North
2014-145T14:04	454298755.05	19.00	13.67	North
2014-145T14:48	454301402.86	18.33	20.96	North
2014-145T15:58	454305560.10	19.67	8.13	North
2014-145T16:48	454308553.82	19.67	10.66	North
2014-145T17:35	454311402.89	20.33	9.20	North
2014-145T18:22	454314239.38	19.67	6.44	North
2014-145T19:10	454317088.44	9.00	8.29	North
2014-145T20:13	454320868.33	22.33	6.31	North
2014-145T21:26	454325277.15	nan	5.21	North
2014-145T22:21	454328572.76	16.33	9.03	North
2014-147T09:01	454453333.05	nan	3.82	North
2014-147T09:56	454456656.98	nan	3.06	North
2014-147T10:58	454460366.49	nan	5.75	North
2014-147T11:59	454464016.17	nan	4.07	North
2014-147T14:38	454473595.74	nan	3.19	North
2014-147T15:25	454476414.44	nan	4.19	North
2014-147T16:21	454479745.02	nan	6.56	North
2014-147T17:36	454484278.86	13.67	10.54	North
2014-147T18:21	454486971.25	15.67	14.69	North
2014-147T19:12	454490022.62	15.67	3.68	North
2014-147T21:08	454497002.87	17.67	2.50	North
2014-149T04:57	454611542.47	nan	8.96	North
2014-149T05:36	454613854.89	8.33	44.40	North
2014-149T06:26	454616879.32	nan	7.42	North
2014-149T08:05	454622823.67	8.33	22.39	North
2014-149T10:14	454630557.86	nan	10.54	North
2014-149T11:15	454634183.26	nan	6.31	North
2014-149T12:22	454638213.66	14.33	11.51	North
2014-149T13:20	454641695.35	nan	6.11	North
2014-149T14:16	454645059.46	nan	7.58	North
2014-149T15:27	454649338.09	13.67	8.22	North
2014-149T16:23	454652676.07	15.00	6.87	North
2014-149T17:17	454655903.01	13.67	8.73	North
2014-149T18:05	454658783.73	15.00	9.90	North
2014-149T19:03	454662304.61	13.67	7.83	North
2014-149T19:58	454665570.74	14.33	12.53	North
2014-149T20:47	454668542.92	13.00	19.64	North
2014-149T21:40	454671724.12	13.67	10.72	North
2014-150T17:40	454743692.20	16.33	11.83	North
2014-150T18:16	454745874.38	nan	9.37	North
2014-150T18:46	454747686.26	nan	7.94	North
2014-150T19:43	454751048.64	nan	9.87	North
2014-150T20:35	454754169.43	18.33	13.41	North
2014-150T21:19	454756862.50	nan	14.54	North
2014-151T17:53	454830880.86	nan	6.85	North
2014-151T18:50	454834293.48	10.33	11.09	North
2014-151T19:36	454837038.67	17.67	8.61	North
2014-151T21:15	454842975.94	17.00	12.08	North
2014-152T17:30	454915904.29	11.00	5.98	North
2014-152T19:46	454924082.05	17.00	7.47	North
2014-152T20:34	454926928.78	nan	7.36	North
2014-153T18:13	455004854.42	19.67	16.05	North
2014-153T18:57	455007537.70	19.67	16.32	North
2014-153T20:14	455012107.49	21.00	7.46	North
2014-153T21:05	455015192.49	19.00	13.76	North
2014-153T21:46	455017664.92	nan	3.38	North
2014-153T22:30	455020306.04	21.00	7.81	North
2014-153T23:22	455023442.08	15.00	13.62	North
2014-154T18:35	455092619.36	16.33	8.86	North
2014-154T19:42	455096587.69	14.33	9.23	North
2014-154T20:24	455099124.49	nan	8.73	North
2014-154T21:14	455102158.44	8.33	13.74	North
2014-154T23:16	455109431.49	nan	7.18	North
2014-156T08:23	455228686.23	nan	3.43	North
2014-156T09:14	455231750.62	17.67	4.77	North
2014-156T10:04	455234762.95	1.67	6.31	North
2014-156T10:57	455237946.34	nan	2.77	North
2014-156T11:59	455241613.20	nan	4.28	North
2014-156T15:07	455252918.72	17.00	4.22	North
2014-156T17:04	455259910.30	15.67	6.75	North
2014-156T17:55	455262974.69	nan	4.16	North
2014-156T20:35	455272576.94	14.33	5.12	North
2014-156T22:56	455281085.84	nan	5.32	North
2014-157T02:14	455292926.88	nan	5.26	North
2014-157T02:53	455295292.12	nan	4.52	North
2014-158T21:15	455447804.71	15.00	5.32	North
2014-158T22:18	455451567.08	nan	4.59	North
2014-158T23:13	455454859.16	17.67	4.84	North
2014-159T00:38	455459975.42	nan	3.31	North
2014-159T02:01	455464930.17	13.00	4.76	North
2014-160T14:47	455597316.27	17.00	4.89	North
2014-160T16:27	455603301.30	18.33	12.34	North
2014-160T18:09	455609461.26	18.33	11.80	North
2014-160T19:52	455615633.72	19.00	4.68	North
2014-161T03:21	455642528.88	nan	3.68	North
2014-161T18:57	455698725.07	17.67	6.00	North
2014-161T19:35	455700996.86	16.33	8.94	North
2014-161T21:22	455707397.44	21.00	7.43	North
2014-161T22:26	455711245.45	17.00	12.02	North
2014-161T23:24	455714761.62	nan	7.52	North
2014-162T01:24	455721953.50	7.00	13.97	North
2014-162T02:28	455725769.60	nan	15.88	North
2014-162T03:17	455728705.06	8.33	15.14	North
2014-162T05:04	455735131.17	9.67	4.51	North
2014-162T08:22	455746994.27	17.67	6.39	North
2014-162T09:16	455750255.18	21.67	5.48	North
2014-248T12:28	463192183.14	nan	11.69	North
2014-248T13:08	463194583.37	nan	13.81	North
2014-248T14:10	463198287.13	13.67	34.43	North
2014-248T15:01	463201373.60	14.33	33.70	North
2014-248T16:00	463204896.77	nan	34.71	North
2014-248T16:49	463207815.78	4.33	19.54	North
2014-248T18:19	463213243.37	nan	5.68	North
2014-248T18:55	463215387.49	nan	12.19	North
2014-248T19:41	463218158.74	9.67	26.48	North
2014-248T20:25	463220795.37	10.33	53.17	North
2014-256T06:48	463862997.65	6.33	24.12	North
2014-256T07:53	463866903.67	5.00	16.91	North
2014-256T08:59	463870827.18	nan	11.80	North
2014-256T10:27	463876091.57	8.33	12.05	North
2014-256T11:55	463881425.91	9.00	15.90	North
2014-256T12:55	463885025.86	9.00	28.23	North
2014-256T13:44	463887914.57	nan	7.81	North
2014-289T17:15	466751814.93	17.00	10.66	North
2014-289T18:04	466754732.26	nan	3.86	North
2014-289T19:48	466760976.87	12.33	7.15	North
2014-289T21:01	466765352.86	19.00	9.44	North
2014-289T22:22	466770224.61	11.67	12.73	North
2014-289T23:28	466774166.82	13.67	16.59	North
2014-290T00:43	466778685.82	16.33	16.66	North
2014-290T01:42	466782199.01	15.00	20.13	North
2014-290T02:39	466785607.32	13.67	8.28	North
2014-290T04:17	466791508.72	nan	3.88	North
2014-290T05:04	466794330.71	nan	3.20	North
2014-311T03:12	468602037.44	13.67	4.94	North
2014-311T04:17	468605924.60	nan	8.42	North
2014-311T06:11	468612748.84	18.33	9.64	North
2014-311T07:15	468616592.60	19.00	6.06	North
2014-311T10:34	468628509.69	20.33	4.93	North
2014-311T11:35	468632203.94	7.67	6.60	North
2014-327T13:16	470020657.94	23.67	20.89	North
2014-327T14:06	470023656.73	9.00	9.83	North
2014-327T14:59	470026836.63	nan	9.09	North
2014-327T15:45	470029599.38	nan	10.42	North
2014-327T16:29	470032230.00	nan	5.14	North
2014-331T20:56	470393856.11	nan	6.00	North
2014-331T22:00	470397684.83	nan	9.74	North
2014-331T22:46	470400459.34	nan	7.39	North
2014-332T00:21	470406170.96	6.33	5.82	North
2014-332T01:12	470409239.18	5.00	19.43	North
2014-332T02:46	470414866.88	9.00	10.39	North
2014-332T03:35	470417814.47	11.67	15.01	North
2014-332T04:35	470421407.17	13.67	14.97	North
2014-332T05:32	470424800.58	9.00	8.12	North
2014-332T06:14	470427339.07	nan	7.95	North
2014-332T07:19	470431209.75	14.33	20.49	North
2014-332T08:18	470434760.50	nan	10.99	North
2014-335T05:36	470684281.51	11.67	5.41	North
2014-335T06:38	470688000.12	nan	2.99	North
2014-335T07:41	470691756.82	15.67	5.37	North
2016-177T04:51	520102332.23	14.33	6.77	North
2016-177T05:46	520105663.09	13.00	8.16	North
2016-250T23:59	526478454.20	9.00	5.98	North
2016-251T00:39	526480819.67	8.33	7.69	North
2016-251T03:40	526491697.07	nan	6.15	North
2016-251T05:11	526497171.89	17.67	6.50	North
2016-273T18:18	528445196.09	13.67	5.00	North
2016-274T15:43	528522249.79	18.33	3.19	North
2016-275T13:29	528600629.42	17.00	3.64	North
2016-276T00:05	528638789.51	17.67	4.37	North
2016-303T03:57	530985490.45	nan	10.30	North
2016-303T08:56	531003445.22	10.33	4.25	North
2017-014T20:38	537698387.16	23.00	5.65	North
2017-079T07:40	543267676.14	18.33	13.16	North
2017-079T08:57	543272289.31	19.67	10.21	North
2017-079T14:29	543292210.24	19.67	5.70	North
2017-079T15:19	543295210.16	19.00	7.12	North
2017-079T17:28	543303004.52	3.67	3.70	North
2017-079T21:57	543319091.71	15.00	5.55	North
2017-079T23:50	543325889.11	17.00	3.77	North
2017-080T00:37	543328716.83	15.00	4.26	North
2017-080T02:27	543335296.72	19.67	3.37	North
2017-092T16:45	544423616.18	21.00	9.34	North
2017-092T18:01	544428143.07	22.33	5.22	North
2017-092T18:46	544430865.21	0.33	7.67	North
2017-092T20:45	544438026.35	19.00	6.17	North
